Device Monitoring, Sample and Element Precision for Analytical Data in handheld pXRF studies - Evaluation in R
…
# Merge
data5 <- data4 %>%
  left_join(lod_table, by = "metric") %>%
  relocate(Empirical_LOD, Manufacturer_LOD, Empirical_LOQ, .after = Element_CV)

# Print data
print(data5)

# A tibble: 81 × 11
   metric  `Mudrock Standard` `SdAR-M2`    SiO2 Element_mean Element_median
   <chr>                <dbl>     <dbl>   <dbl>        <dbl>          <dbl>
 1 Mg_Mean            1677      1489    1128            1431           1460
 2 Mg_SD                38        24      13              25             24
 3 Mg_CV                 2.25      1.6     1.17            2              2
 4 Al_Mean            1197       916     290             801            858
 5 Al_SD                34        27       2              21             24
 6 Al_CV                 2.84      2.91    0.74            2              2
 7 Si_Mean            1208      1241    1208            1219           1214
 8 Si_SD                41        41       4              29             35
 9 Si_CV                 3.4       3.31    0.3             2              3
10 P_Mean               79        88      65              77             78
# ℹ 71 more rows
# ℹ 5 more variables: Element_SD <dbl>, Element_CV <dbl>, Empirical_LOD <dbl>,
#   Manufacturer_LOD <dbl>, Empirical_LOQ <dbl>
…
# Add File label to mark the summary row
flag_summary_row <- tibble(File = "TOTAL_FLAGS", flag_summary_row)

# Make sure File is character in main data
filtered_flags <- filtered_flags %>%
  mutate(File = as.character(File))

# Combine
flag_results_with_total <- bind_rows(flag_summary_row, filtered_flags)

# View result
print(flag_results_with_total)

# A tibble: 91 × 28
   File      Mg_flag Al_flag Si_flag P_flag S_flag K_flag Ca_flag Ti_flag V_flag
   <chr>     <chr>   <chr>   <chr>   <chr>  <chr>  <chr>  <chr>   <chr>   <chr> 
 1 TOTAL_FL… "69"    "0"     "0"     "78"   "61"   "0"    "0"     "0"     87    
 2 3388      "[LOW]… ""      ""      "[LOW… ""     ""     ""      ""      [LOW]…
 3 3389      "[LOW]… ""      ""      "[LOW… ""     ""     ""      ""      [LOW]…
 4 3390      "[LOW]… ""      ""      "[LOW… ""     ""     ""      ""      [LOW]…
 5 3398      ""      ""      ""      ""     ""     ""     ""      ""      [LOW]…
 6 3399      ""      ""      ""      ""     ""     ""     ""      ""      [LOW]…
 7 3400      ""      ""      ""      ""     ""     ""     ""      ""      [LOW]…
 8 3401      "[LOW-… ""      ""      "[LOW… "[LOW… ""     ""      ""      [LOW]…
 9 3402      "[LOW]… ""      ""      "[LOW… "[LOW… ""     ""      ""      [LOW]…
10 3403      ""      ""      ""      "[LOW… "[LOW… ""     ""      ""      [LOW]…
# ℹ 81 more rows
# ℹ 18 more variables: Cr_flag <chr>, Mn_flag <chr>, Fe_flag <chr>,
#   Co_flag <chr>, Ni_flag <chr>, Cu_flag <chr>, Zn_flag <chr>, As_flag <chr>,
#   Rb_flag <chr>, Sr_flag <chr>, Y_flag <chr>, Zr_flag <chr>, Nb_flag <chr>,
#   Mo_flag <chr>, Ba_flag <chr>, Pb_flag <chr>, Th_flag <chr>, U_flag <chr>
…
